<svg width="157" height="157" viewBox="0 0 157 157" fill="none" xmlns="http://www.w3.org/2000/svg">
<circle cx="78.3466" cy="78.5302" r="78.3466" fill="#D0CFE3"/>
<path d="M98.0393 103.994L97.259 107.115H58.4412L57.661 103.994H56.0029L62.245 128.962H93.4553L99.6973 103.994H98.0393ZM91.017 125.841H64.6833L60.782 110.236H94.9183L91.017 125.841Z" fill="white"/>
<path d="M95.6987 107.115L94.9185 110.236H60.7822L60.002 107.115H95.6987Z" fill="#A0887E"/>
<path d="M52.8818 97.7522L56.0029 110.236H99.6973L102.818 97.7522H52.8818ZM97.259 107.115H58.4412L56.8807 100.873H98.8195L97.259 107.115Z" fill="white"/>
<path d="M79.4111 54.0578V54.4479C78.9991 54.5468 78.5783 54.6043 78.1548 54.6196L77.8505 54.9473L77.5463 54.6196C77.1228 54.6043 76.702 54.5468 76.29 54.4479V54.0578H79.4111Z" fill="white"/>
<path d="M77.8505 56.976L79.4111 58.6574V97.7522H76.29V58.6574L77.8505 56.976Z" fill="white"/>
<path d="M77.851 40.5984C76.1388 40.6181 74.4928 41.2628 73.2227 42.4112C71.9525 43.5595 71.1457 45.1324 70.954 46.8339C70.7623 48.5355 71.1989 50.2484 72.1816 51.6506C73.1644 53.0528 74.6256 54.0476 76.2905 54.4479C76.7024 54.5468 77.1233 54.6043 77.5467 54.6196L77.851 54.9473L78.1553 54.6196C78.5787 54.6043 78.9995 54.5468 79.4115 54.4479C81.091 54.0608 82.5695 53.0695 83.5654 51.6628C84.5613 50.2562 85.0052 48.5324 84.8124 46.8196C84.6197 45.1069 83.8037 43.5249 82.52 42.3748C81.2363 41.2247 79.5745 40.5869 77.851 40.5827V40.5984ZM77.851 43.7194C78.6226 43.7194 79.3769 43.9482 80.0184 44.3769C80.66 44.8055 81.16 45.4148 81.4553 46.1277C81.7506 46.8406 81.8278 47.625 81.6773 48.3818C81.5268 49.1385 81.1552 49.8337 80.6096 50.3793C80.064 50.9249 79.3689 51.2965 78.6121 51.447C77.8553 51.5975 77.0709 51.5203 76.358 51.225C75.6452 50.9297 75.0359 50.4297 74.6072 49.7881C74.1785 49.1465 73.9497 48.3923 73.9497 47.6207C73.9497 46.586 74.3607 45.5937 75.0923 44.862C75.824 44.1304 76.8163 43.7194 77.851 43.7194ZM77.851 40.5984C76.1388 40.6181 74.4928 41.2628 73.2227 42.4112C71.9525 43.5595 71.1457 45.1324 70.954 46.8339C70.7623 48.5355 71.1989 50.2484 72.1816 51.6506C73.1644 53.0528 74.6256 54.0476 76.2905 54.4479C76.7024 54.5468 77.1233 54.6043 77.5467 54.6196L77.851 54.9473L78.1553 54.6196C78.5787 54.6043 78.9995 54.5468 79.4115 54.4479C81.091 54.0608 82.5695 53.0695 83.5654 51.6628C84.5613 50.2562 85.0052 48.5324 84.8124 46.8196C84.6197 45.1069 83.8037 43.5249 82.52 42.3748C81.2363 41.2247 79.5745 40.5869 77.851 40.5827V40.5984ZM77.851 43.7194C78.6226 43.7194 79.3769 43.9482 80.0184 44.3769C80.66 44.8055 81.16 45.4148 81.4553 46.1277C81.7506 46.8406 81.8278 47.625 81.6773 48.3818C81.5268 49.1385 81.1552 49.8337 80.6096 50.3793C80.064 50.9249 79.3689 51.2965 78.6121 51.447C77.8553 51.5975 77.0709 51.5203 76.358 51.225C75.6452 50.9297 75.0359 50.4297 74.6072 49.7881C74.1785 49.1465 73.9497 48.3923 73.9497 47.6207C73.9497 46.586 74.3607 45.5937 75.0923 44.862C75.824 44.1304 76.8163 43.7194 77.851 43.7194ZM77.851 40.5984C76.1388 40.6181 74.4928 41.2628 73.2227 42.4112C71.9525 43.5595 71.1457 45.1324 70.954 46.8339C70.7623 48.5355 71.1989 50.2484 72.1816 51.6506C73.1644 53.0528 74.6256 54.0476 76.2905 54.4479C76.7024 54.5468 77.1233 54.6043 77.5467 54.6196L77.851 54.9473L78.1553 54.6196C78.5787 54.6043 78.9995 54.5468 79.4115 54.4479C81.091 54.0608 82.5695 53.0695 83.5654 51.6628C84.5613 50.2562 85.0052 48.5324 84.8124 46.8196C84.6197 45.1069 83.8037 43.5249 82.52 42.3748C81.2363 41.2247 79.5745 40.5869 77.851 40.5827V40.5984ZM77.851 43.7194C78.6226 43.7194 79.3769 43.9482 80.0184 44.3769C80.66 44.8055 81.16 45.4148 81.4553 46.1277C81.7506 46.8406 81.8278 47.625 81.6773 48.3818C81.5268 49.1385 81.1552 49.8337 80.6096 50.3793C80.064 50.9249 79.3689 51.2965 78.6121 51.447C77.8553 51.5975 77.0709 51.5203 76.358 51.225C75.6452 50.9297 75.0359 50.4297 74.6072 49.7881C74.1785 49.1465 73.9497 48.3923 73.9497 47.6207C73.9497 46.586 74.3607 45.5937 75.0923 44.862C75.824 44.1304 76.8163 43.7194 77.851 43.7194ZM77.851 40.5984C76.1388 40.6181 74.4928 41.2628 73.2227 42.4112C71.9525 43.5595 71.1457 45.1324 70.954 46.8339C70.7623 48.5355 71.1989 50.2484 72.1816 51.6506C73.1644 53.0528 74.6256 54.0476 76.2905 54.4479C76.7024 54.5468 77.1233 54.6043 77.5467 54.6196L77.851 54.9473L78.1553 54.6196C78.5787 54.6043 78.9995 54.5468 79.4115 54.4479C81.091 54.0608 82.5695 53.0695 83.5654 51.6628C84.5613 50.2562 85.0052 48.5324 84.8124 46.8196C84.6197 45.1069 83.8037 43.5249 82.52 42.3748C81.2363 41.2247 79.5745 40.5869 77.851 40.5827V40.5984ZM77.851 43.7194C78.6226 43.7194 79.3769 43.9482 80.0184 44.3769C80.66 44.8055 81.16 45.4148 81.4553 46.1277C81.7506 46.8406 81.8278 47.625 81.6773 48.3818C81.5268 49.1385 81.1552 49.8337 80.6096 50.3793C80.064 50.9249 79.3689 51.2965 78.6121 51.447C77.8553 51.5975 77.0709 51.5203 76.358 51.225C75.6452 50.9297 75.0359 50.4297 74.6072 49.7881C74.1785 49.1465 73.9497 48.3923 73.9497 47.6207C73.9497 46.586 74.3607 45.5937 75.0923 44.862C75.824 44.1304 76.8163 43.7194 77.851 43.7194ZM95.4068 44.999C95.409 43.7631 95.1316 42.5428 94.5953 41.4293C93.7838 39.7499 92.4281 38.3942 90.7486 37.5827C89.6356 37.0451 88.415 36.7676 87.1789 36.7712C86.8071 36.7723 86.4358 36.7971 86.0671 36.8453C85.9548 34.7431 85.0406 32.764 83.5129 31.3157C81.9851 29.8673 79.9601 29.06 77.8549 29.06C75.7497 29.06 73.7247 29.8673 72.1969 31.3157C70.6691 32.764 69.7549 34.7431 69.6427 36.8453C69.274 36.7971 68.9026 36.7723 68.5308 36.7712C66.7095 36.7711 64.9395 37.3751 63.4982 38.4886C62.0568 39.6021 61.0254 41.1621 60.5655 42.9245C60.1057 44.6868 60.2433 46.5519 60.9568 48.2277C61.6703 49.9035 62.9194 51.2953 64.5086 52.1852C64.0991 52.9705 63.8222 53.8181 63.6893 54.6937C63.6201 55.1154 63.5861 55.5421 63.5879 55.9694C63.5785 57.1951 63.8452 58.4071 64.3681 59.5157C65.0363 60.9157 66.0869 62.0982 67.3985 62.9265C68.7101 63.7549 70.2293 64.1954 71.7806 64.1972C72.9194 64.201 74.0466 63.9689 75.0913 63.5157C76.136 63.0625 77.0756 62.3979 77.851 61.5639C79.2045 63.018 81.0383 63.9333 83.014 64.1408C84.9897 64.3483 86.9737 63.834 88.5998 62.6929C90.2259 61.5518 91.3842 59.8609 91.8609 57.9324C92.3376 56.0039 92.1005 53.9681 91.1934 52.2008C92.4734 51.4844 93.5389 50.4391 94.2796 49.173C95.0203 47.9069 95.4095 46.4659 95.4068 44.999ZM89.668 49.4621L87.0307 50.9368L88.4196 53.6208C88.7982 54.3429 88.9951 55.1463 88.993 55.9616C88.994 56.989 88.685 57.9928 88.1065 58.8419C87.528 59.6909 86.7068 60.3457 85.7503 60.7207C84.7938 61.0957 83.7464 61.1735 82.745 60.9439C81.7436 60.7143 80.8347 60.188 80.1371 59.4338L79.4115 58.6535L77.851 56.972L76.2905 58.6535L75.5648 59.4338C74.8249 60.2329 73.8491 60.7749 72.7795 60.9805C71.71 61.1861 70.6028 61.0447 69.6193 60.5768C68.5627 60.0705 67.7107 59.2185 67.2044 58.1619C66.8762 57.475 66.7068 56.7229 66.7089 55.9616C66.7082 55.7003 66.729 55.4393 66.7713 55.1814C66.8514 54.6364 67.0229 54.1088 67.2785 53.6208L68.6752 50.9368L66.034 49.4543C65.0465 48.9031 64.27 48.0398 63.8261 46.9997C63.3822 45.9596 63.2961 44.8016 63.5812 43.7073C63.8664 42.613 64.5068 41.6443 65.4018 40.9531C66.2969 40.262 67.3961 39.8874 68.5269 39.8883C68.7592 39.8889 68.9911 39.9045 69.2213 39.9351L72.5647 40.4033L72.752 37.0365C72.8241 35.7329 73.3928 34.5065 74.3411 33.6092C75.2895 32.7119 76.5454 32.2119 77.851 32.2119C79.1565 32.2119 80.4125 32.7119 81.3608 33.6092C82.3092 34.5065 82.8778 35.7329 82.95 37.0365L83.1411 40.3994L86.4767 39.9507C86.7096 39.9201 86.9441 39.9045 87.1789 39.9039C87.935 39.9005 88.6819 40.0686 89.3637 40.3955H89.391C90.4354 40.8997 91.2783 41.7426 91.7825 42.787C92.1172 43.4761 92.2893 44.2329 92.2857 44.999C92.2844 45.9082 92.0413 46.8008 91.5812 47.585C91.1212 48.3693 90.4609 49.0171 89.668 49.4621ZM77.851 40.5984C76.1388 40.6181 74.4928 41.2628 73.2227 42.4112C71.9525 43.5595 71.1457 45.1324 70.954 46.8339C70.7623 48.5355 71.1989 50.2484 72.1816 51.6506C73.1644 53.0528 74.6256 54.0476 76.2905 54.4479C76.7024 54.5468 77.1233 54.6043 77.5467 54.6196L77.851 54.9473L78.1553 54.6196C78.5787 54.6043 78.9995 54.5468 79.4115 54.4479C81.091 54.0608 82.5695 53.0695 83.5654 51.6628C84.5613 50.2562 85.0052 48.5324 84.8124 46.8196C84.6197 45.1069 83.8037 43.5249 82.52 42.3748C81.2363 41.2247 79.5745 40.5869 77.851 40.5827V40.5984ZM77.851 43.7194C78.6226 43.7194 79.3769 43.9482 80.0184 44.3769C80.66 44.8055 81.16 45.4148 81.4553 46.1277C81.7506 46.8406 81.8278 47.625 81.6773 48.3818C81.5268 49.1385 81.1552 49.8337 80.6096 50.3793C80.064 50.9249 79.3689 51.2965 78.6121 51.447C77.8553 51.5975 77.0709 51.5203 76.358 51.225C75.6452 50.9297 75.0359 50.4297 74.6072 49.7881C74.1785 49.1465 73.9497 48.3923 73.9497 47.6207C73.9497 46.586 74.3607 45.5937 75.0923 44.862C75.824 44.1304 76.8163 43.7194 77.851 43.7194ZM77.851 40.5984C76.1388 40.6181 74.4928 41.2628 73.2227 42.4112C71.9525 43.5595 71.1457 45.1324 70.954 46.8339C70.7623 48.5355 71.1989 50.2484 72.1816 51.6506C73.1644 53.0528 74.6256 54.0476 76.2905 54.4479C76.7024 54.5468 77.1233 54.6043 77.5467 54.6196L77.851 54.9473L78.1553 54.6196C78.5787 54.6043 78.9995 54.5468 79.4115 54.4479C81.091 54.0608 82.5695 53.0695 83.5654 51.6628C84.5613 50.2562 85.0052 48.5324 84.8124 46.8196C84.6197 45.1069 83.8037 43.5249 82.52 42.3748C81.2363 41.2247 79.5745 40.5869 77.851 40.5827V40.5984ZM77.851 43.7194C78.6226 43.7194 79.3769 43.9482 80.0184 44.3769C80.66 44.8055 81.16 45.4148 81.4553 46.1277C81.7506 46.8406 81.8278 47.625 81.6773 48.3818C81.5268 49.1385 81.1552 49.8337 80.6096 50.3793C80.064 50.9249 79.3689 51.2965 78.6121 51.447C77.8553 51.5975 77.0709 51.5203 76.358 51.225C75.6452 50.9297 75.0359 50.4297 74.6072 49.7881C74.1785 49.1465 73.9497 48.3923 73.9497 47.6207C73.9497 46.586 74.3607 45.5937 75.0923 44.862C75.824 44.1304 76.8163 43.7194 77.851 43.7194ZM77.851 40.5984C76.1388 40.6181 74.4928 41.2628 73.2227 42.4112C71.9525 43.5595 71.1457 45.1324 70.954 46.8339C70.7623 48.5355 71.1989 50.2484 72.1816 51.6506C73.1644 53.0528 74.6256 54.0476 76.2905 54.4479C76.7024 54.5468 77.1233 54.6043 77.5467 54.6196L77.851 54.9473L78.1553 54.6196C78.5787 54.6043 78.9995 54.5468 79.4115 54.4479C81.091 54.0608 82.5695 53.0695 83.5654 51.6628C84.5613 50.2562 85.0052 48.5324 84.8124 46.8196C84.6197 45.1069 83.8037 43.5249 82.52 42.3748C81.2363 41.2247 79.5745 40.5869 77.851 40.5827V40.5984ZM77.851 43.7194C78.6226 43.7194 79.3769 43.9482 80.0184 44.3769C80.66 44.8055 81.16 45.4148 81.4553 46.1277C81.7506 46.8406 81.8278 47.625 81.6773 48.3818C81.5268 49.1385 81.1552 49.8337 80.6096 50.3793C80.064 50.9249 79.3689 51.2965 78.6121 51.447C77.8553 51.5975 77.0709 51.5203 76.358 51.225C75.6452 50.9297 75.0359 50.4297 74.6072 49.7881C74.1785 49.1465 73.9497 48.3923 73.9497 47.6207C73.9497 46.586 74.3607 45.5937 75.0923 44.862C75.824 44.1304 76.8163 43.7194 77.851 43.7194Z" fill="white"/>
<path d="M77.8503 40.5984C76.1381 40.6182 74.4922 41.2629 73.222 42.4112C71.9519 43.5596 71.1451 45.1324 70.9534 46.8339C70.7616 48.5355 71.1982 50.2484 72.181 51.6506C73.1637 53.0528 74.625 54.0476 76.2898 54.4479C76.7018 54.5468 77.1226 54.6043 77.546 54.6196L77.0116 54.0578L75.5642 52.4973C75.1975 52.1043 74.7725 51.77 74.3041 51.5064L71.6668 50.0278L73.0596 47.3437C73.3907 46.7088 73.5823 46.0105 73.6213 45.2955L73.8086 41.9287L77.152 42.3735C77.6151 42.4411 78.0856 42.4411 78.5487 42.3735L81.8921 41.9287L82.0793 45.2955C82.1166 46.0108 82.3082 46.7095 82.6411 47.3437L84.0339 50.0278L81.3966 51.5064C80.9282 51.77 80.5032 52.1043 80.1365 52.4973L78.6891 54.0578L78.1546 54.6352C78.5786 54.6148 78.9994 54.5521 79.4108 54.4479C81.0904 54.0608 82.5688 53.0695 83.5648 51.6629C84.5607 50.2562 85.0045 48.5324 84.8118 46.8197C84.619 45.1069 83.8031 43.5249 82.5194 42.3748C81.2357 41.2247 79.5739 40.5869 77.8503 40.5828V40.5984Z" fill="#F54337"/>
<path d="M77.8503 40.5984C76.1381 40.6182 74.4922 41.2629 73.222 42.4112C71.9519 43.5596 71.1451 45.1324 70.9534 46.8339C70.7616 48.5355 71.1982 50.2484 72.181 51.6506C73.1637 53.0528 74.625 54.0476 76.2898 54.4479C76.7018 54.5468 77.1226 54.6043 77.546 54.6196H77.8503H78.1546C78.578 54.6043 78.9989 54.5468 79.4108 54.4479C81.0904 54.0608 82.5688 53.0695 83.5648 51.6629C84.5607 50.2562 85.0045 48.5324 84.8118 46.8197C84.619 45.1069 83.8031 43.5249 82.5194 42.3748C81.2357 41.2247 79.5739 40.5869 77.8503 40.5828V40.5984ZM77.8503 43.7194C78.6219 43.7194 79.3762 43.9482 80.0178 44.3769C80.6593 44.8056 81.1594 45.4149 81.4547 46.1277C81.7499 46.8406 81.8272 47.625 81.6767 48.3818C81.5261 49.1386 81.1546 49.8337 80.609 50.3793C80.0634 50.9249 79.3682 51.2965 78.6114 51.447C77.8547 51.5975 77.0702 51.5203 76.3574 51.225C75.6445 50.9297 75.0352 50.4297 74.6065 49.7881C74.1779 49.1466 73.949 48.3923 73.949 47.6207C73.949 46.586 74.3601 45.5937 75.0917 44.8621C75.8233 44.1304 76.8156 43.7194 77.8503 43.7194Z" fill="white"/>
<path d="M86.6555 68.4379C83.2614 70.3886 80.6866 72.9244 79.4108 75.2886C78.4394 77.0871 78.2404 78.7997 78.9661 80.0833C79.0903 80.2979 79.2396 80.497 79.4108 80.6763C81.5838 83.017 87.3539 82.4474 92.8976 79.2484C98.8666 75.7997 100.587 67.5992 100.587 67.5992C100.587 67.5992 92.6245 64.9814 86.6555 68.4379ZM91.3371 76.5448C88.6959 78.0702 85.8206 78.9792 83.6437 78.9792C82.2276 78.9792 81.7126 78.5891 81.6658 78.5227C81.2756 77.8517 82.9844 74.1611 88.216 71.1376C89.7766 70.2325 91.7623 69.7722 94.0953 69.7722C94.9145 69.7742 95.7328 69.8276 96.5453 69.9321C95.6246 72.1363 93.9899 75.0116 91.3371 76.5448Z" fill="white"/>
</svg>
