<svg width="97" height="98" viewBox="0 0 97 98" fill="none" xmlns="http://www.w3.org/2000/svg">
<path d="M51.8068 9.94571H45.0429C44.4417 10.6973 43.9907 11.7494 43.9907 12.9519C43.9907 15.3568 45.9447 17.4612 48.5 17.4612C51.0552 17.4612 53.0093 15.3568 53.0093 12.9519C53.0093 11.7494 52.5583 10.6973 51.8068 9.94571Z" fill="white"/>
<path d="M78.5619 88.1063H18.4383C16.7849 88.1063 15.4321 86.7535 15.4321 85.1002V12.9519C15.4321 11.2985 16.7849 9.94571 18.4383 9.94571H78.5619C80.2153 9.94571 81.568 11.2985 81.568 12.9519V85.1002C81.568 86.7535 80.2153 88.1063 78.5619 88.1063ZM18.4383 12.9519V85.1002H78.5619V12.9519H18.4383Z" fill="white"/>
<path d="M62.0281 24.9766H34.9725C33.3191 24.9766 31.9663 23.6238 31.9663 21.9704V12.9519C31.9663 11.2985 33.3191 9.94571 34.9725 9.94571H62.0281C63.6815 9.94571 65.0343 11.2985 65.0343 12.9519V21.9704C65.0343 23.6238 63.6815 24.9766 62.0281 24.9766ZM34.9725 12.9519V21.9704H62.0281V12.9519H34.9725Z" fill="white"/>
<path d="M28.96 41.5106C28.509 41.5106 28.2084 41.3603 27.9078 41.0597L24.9016 38.0535C24.3004 37.4522 24.3004 36.5504 24.9016 35.9492C25.5028 35.3479 26.4047 35.3479 27.0059 35.9492L30.0121 38.9553C30.6133 39.5566 30.6133 40.4584 30.0121 41.0597C29.7115 41.3603 29.4109 41.5106 28.96 41.5106Z" fill="white"/>
<path d="M28.96 42.1118L24.9016 38.0535C24.3004 37.4522 24.3004 36.5504 24.9016 35.9491C25.5028 35.3479 26.4047 35.3479 27.0059 35.9491L28.96 37.9032L33.9201 32.943C34.5214 32.3417 35.4232 32.3417 36.0245 32.943C36.6257 33.5442 36.6257 34.4461 36.0245 35.0473L28.96 42.1118Z" fill="white"/>
<path d="M28.96 53.5353C28.509 53.5353 28.2084 53.385 27.9078 53.0843L24.9016 50.0782C24.3004 49.4769 24.3004 48.5751 24.9016 47.9738C25.5028 47.3726 26.4047 47.3726 27.0059 47.9738L30.0121 50.98C30.6133 51.5813 30.6133 52.4831 30.0121 53.0843C29.7115 53.385 29.4109 53.5353 28.96 53.5353Z" fill="white"/>
<path d="M28.96 54.1365L24.9016 50.0782C24.3004 49.4769 24.3004 48.5751 24.9016 47.9739C25.5028 47.3726 26.4047 47.3726 27.0059 47.9739L28.96 49.9279L33.9201 44.9677C34.5214 44.3664 35.4232 44.3664 36.0245 44.9677C36.6257 45.5689 36.6257 46.4708 36.0245 47.072L28.96 54.1365Z" fill="white"/>
<path d="M28.96 65.56C28.509 65.56 28.2084 65.4097 27.9078 65.1091L24.9016 62.1029C24.3004 61.5017 24.3004 60.5998 24.9016 59.9986C25.5028 59.3973 26.4047 59.3973 27.0059 59.9986L30.0121 63.0047C30.6133 63.606 30.6133 64.5078 30.0121 65.1091C29.7115 65.4097 29.4109 65.56 28.96 65.56Z" fill="white"/>
<path d="M28.96 66.1612L24.9016 62.1029C24.3004 61.5017 24.3004 60.5998 24.9016 59.9986C25.5028 59.3973 26.4047 59.3973 27.0059 59.9986L28.96 61.9526L33.9201 56.9924C34.5214 56.3912 35.4232 56.3912 36.0245 56.9924C36.6257 57.5936 36.6257 58.4955 36.0245 59.0967L28.96 66.1612Z" fill="white"/>
<path d="M28.96 77.5847C28.509 77.5847 28.2084 77.4344 27.9078 77.1338L24.9016 74.1276C24.3004 73.5264 24.3004 72.6245 24.9016 72.0233C25.5028 71.422 26.4047 71.422 27.0059 72.0233L30.0121 75.0295C30.6133 75.6307 30.6133 76.5326 30.0121 77.1338C29.7115 77.4344 29.4109 77.5847 28.96 77.5847Z" fill="white"/>
<path d="M28.96 78.1859L24.9016 74.1276C24.3004 73.5264 24.3004 72.6245 24.9016 72.0233C25.5028 71.422 26.4047 71.422 27.0059 72.0233L28.96 73.9773L33.9201 69.0171C34.5214 68.4159 35.4232 68.4159 36.0245 69.0171C36.6257 69.6183 36.6257 70.5202 36.0245 71.1214L28.96 78.1859Z" fill="white"/>
<path d="M71.0465 37.0013H48.5002C47.5983 37.0013 46.9971 36.4001 46.9971 35.4982C46.9971 34.5964 47.5983 33.9951 48.5002 33.9951H71.0465C71.9483 33.9951 72.5496 34.5964 72.5496 35.4982C72.5496 36.4001 71.9483 37.0013 71.0465 37.0013Z" fill="white"/>
<path d="M71.0465 41.5106H48.5002C47.5983 41.5106 46.9971 40.9093 46.9971 40.0075C46.9971 39.1056 47.5983 38.5044 48.5002 38.5044H71.0465C71.9483 38.5044 72.5496 39.1056 72.5496 40.0075C72.5496 40.9093 71.9483 41.5106 71.0465 41.5106Z" fill="white"/>
<path d="M71.0465 49.026H48.5002C47.5983 49.026 46.9971 48.4248 46.9971 47.5229C46.9971 46.6211 47.5983 46.0198 48.5002 46.0198H71.0465C71.9483 46.0198 72.5496 46.6211 72.5496 47.5229C72.5496 48.4248 71.9483 49.026 71.0465 49.026Z" fill="white"/>
<path d="M71.0465 53.5353H48.5002C47.5983 53.5353 46.9971 52.9341 46.9971 52.0322C46.9971 51.1303 47.5983 50.5291 48.5002 50.5291H71.0465C71.9483 50.5291 72.5496 51.1303 72.5496 52.0322C72.5496 52.9341 71.9483 53.5353 71.0465 53.5353Z" fill="white"/>
<path d="M71.0465 61.0507H48.5002C47.5983 61.0507 46.9971 60.4495 46.9971 59.5476C46.9971 58.6458 47.5983 58.0446 48.5002 58.0446H71.0465C71.9483 58.0446 72.5496 58.6458 72.5496 59.5476C72.5496 60.4495 71.9483 61.0507 71.0465 61.0507Z" fill="white"/>
<path d="M71.0465 65.56H48.5002C47.5983 65.56 46.9971 64.9588 46.9971 64.0569C46.9971 63.1551 47.5983 62.5538 48.5002 62.5538H71.0465C71.9483 62.5538 72.5496 63.1551 72.5496 64.0569C72.5496 64.9588 71.9483 65.56 71.0465 65.56Z" fill="white"/>
<path d="M71.0465 73.0754H48.5002C47.5983 73.0754 46.9971 72.4742 46.9971 71.5724C46.9971 70.6705 47.5983 70.0693 48.5002 70.0693H71.0465C71.9483 70.0693 72.5496 70.6705 72.5496 71.5724C72.5496 72.4742 71.9483 73.0754 71.0465 73.0754Z" fill="white"/>
<path d="M71.0465 77.5847H48.5002C47.5983 77.5847 46.9971 76.9835 46.9971 76.0816C46.9971 75.1798 47.5983 74.5785 48.5002 74.5785H71.0465C71.9483 74.5785 72.5496 75.1798 72.5496 76.0816C72.5496 76.9835 71.9483 77.5847 71.0465 77.5847Z" fill="white"/>
</svg>
